<?xml version="1.0" encoding="utf-8"?>
<!-- Generated by IcoMoon.io -->
<!DOCTYPE svg PUBLIC "-//W3C//DTD SVG 1.1//EN" "http://www.w3.org/Graphics/SVG/1.1/DTD/svg11.dtd">
<svg version="1.1" xmlns="http://www.w3.org/2000/svg" xmlns:xlink="http://www.w3.org/1999/xlink" width="149" height="32" viewBox="0 0 149 32">
<path fill="#fff" opacity="0.2" d="M50.51 8.679h1.463l6.551 14.287h-2.577l-1.392-3.045h-8.092l-1.392 3.045h-2.555l6.529-14.287h1.463zM50.51 11.068l-2.84 6.214h5.679l-2.84-6.214zM145.829 0h-142.728c-1.725 0-3.101 1.599-3.101 3.603v24.793c0 1.979 1.376 3.604 3.101 3.604h142.75c1.703 0 3.101-1.599 3.101-3.604v-24.793c-0.022-2.005-1.398-3.603-3.123-3.603zM144.781 23.296c0 1.979-1.376 3.604-3.101 3.604h-134.43c-1.725 0-3.101-1.599-3.101-3.604v-14.871c0-2.005 1.376-3.604 3.101-3.604h134.452c1.703 0 3.101 1.599 3.101 3.604v14.871h-0.022zM7.861 16v7.423h11.53v-0.025c1.005-0.152 1.813-1.751 1.813-3.705 0-1.909-0.771-3.48-1.744-3.692 0.972-0.213 1.744-1.783 1.744-3.692 0-1.954-0.808-3.553-1.813-3.705l-11.53-0.025v7.423zM17.688 20.124h-7.032v-3.045h7.032c0.611 0.051 1.092 0.711 1.092 1.523s-0.48 1.472-1.092 1.523zM17.688 14.262h-7.032v-3.045h7.032c0.611 0.051 1.092 0.711 1.092 1.523s-0.48 1.472-1.092 1.523zM96.87 16.799h6.158v-2.639h-6.158v-2.766h10.198v-2.639h-10.198v-0.025h-2.271v14.465h12.469v-2.639h-10.198v-3.756zM27.908 16.749h1.511l6.656 6.446h3.647l-6.656-6.446h4.014v-0.025c1.048-0.152 1.856-1.929 1.856-4.060 0-2.157-0.83-3.908-1.856-4.060l-11.901-0.025v14.617h2.73v-6.446zM34.656 14.693h-7.032v-3.045h7.032c0.611 0.051 1.092 0.711 1.092 1.523 0 0.787-0.48 1.446-1.092 1.523zM113.947 16.749h1.511l6.656 6.446h3.647l-6.656-6.446h4.014v-0.025c1.048-0.152 1.856-1.929 1.856-4.060 0-2.157-0.83-3.908-1.856-4.060l-11.901-0.025v14.617h2.73v-6.446zM120.695 14.693h-7.032v-3.045h7.032c0.611 0.051 1.092 0.711 1.092 1.523 0 0.787-0.48 1.446-1.092 1.523zM139.759 11.293h-7.578v3.096h7.687v0.008c0.058-0.005 0.116-0.008 0.175-0.008 1.267 0 2.293 1.193 2.293 2.665v3.35c0 1.472-1.026 2.665-2.293 2.665-0.106 0-0.211-0.009-0.314-0.025h-8.639v-0.026c-0.015 0-0.029 0-0.044 0-1.267 0-2.271-1.193-2.271-2.639v-1.396h2.599v1.32h8.342v-3.172h-7.569c-0.103 0.017-0.208 0.025-0.314 0.025-1.245 0-2.271-1.193-2.271-2.639v-3.324c0-1.472 1.026-2.639 2.271-2.639 0.074 0 0.147 0.004 0.218 0.011v-0.011h7.818v0.014c0.079-0.009 0.159-0.014 0.24-0.014 1.31 0 2.358 1.218 2.358 2.741v1.446h-2.708v-1.446zM62.804 23.017h-2.249l9.39-11.775h-7.555v-2.766h13.386l-9.41 11.8h8.122v2.766h-11.683v-0.025zM78.636 23.017h-2.249l9.354-11.775h-7.52v-2.766h13.343l-9.375 11.8h8.13v2.766h-11.683v-0.025z"></path>
</svg>
