<?xml version="1.0" encoding="utf-8"?>
<!-- Generated by IcoMoon.io -->
<!DOCTYPE svg PUBLIC "-//W3C//DTD SVG 1.1//EN" "http://www.w3.org/Graphics/SVG/1.1/DTD/svg11.dtd">
<svg version="1.1" xmlns="http://www.w3.org/2000/svg" xmlns:xlink="http://www.w3.org/1999/xlink" width="176" height="32" viewBox="0 0 176 32">
<path fill="#43484d" d="M3.999 31.35v-12.558c0-3.118 1.935-5.283 4.816-5.283 3.096 0 4.386 2.079 4.386 4.763v13.077h4.042v-12.601c0-2.988 1.935-5.239 4.773-5.239 3.053 0 4.386 2.035 4.386 4.763v13.077h3.999v-13.51c0-5.456-3.526-7.924-7.138-7.924-2.623 0-5.289 0.953-6.923 3.94-1.118-2.685-3.612-3.94-6.192-3.94-2.408 0-4.988 1.083-6.278 3.378v-2.771h-3.87v20.828h3.999zM47.364 28.363c-3.44 0-6.45-2.598-6.45-7.448 0-4.806 3.010-7.405 6.45-7.405s6.45 2.598 6.45 7.405c0 4.85-3.010 7.448-6.45 7.448v0zM47.364 9.873c-6.192 0-10.579 4.72-10.579 11.042 0 6.365 4.386 11.085 10.579 11.085s10.579-4.72 10.579-11.085c0-6.322-4.386-11.042-10.579-11.042v0zM67.164 20.871c0-4.287 2.408-7.318 6.106-7.318s5.934 2.945 5.934 7.231c0 4.287-2.279 7.535-5.977 7.535-3.87 0-6.063-3.161-6.063-7.448v0zM79.248 28.536c0 1.256 0.129 2.338 0.215 2.815h3.913c-0.043-0.346-0.215-1.862-0.215-3.854v-27.497h-3.999v13.467c-0.688-1.689-2.666-3.507-6.321-3.507-5.848 0-9.805 5.023-9.805 10.912 0 6.192 3.741 11.042 9.805 11.042 3.225 0 5.418-1.732 6.407-3.724v0.346zM105.111 28.839c0 0.866 0.086 2.035 0.172 2.511h3.87c-0.086-0.736-0.215-2.208-0.215-3.854v-16.974h-4.042v12.557c0 3.161-1.634 5.326-4.902 5.326-3.397 0-4.687-2.512-4.687-5.369v-12.514h-4.042v13.12c0 4.72 2.924 8.357 7.74 8.357 2.408 0 4.988-0.996 6.106-3.161v0zM121.514 31.35v-31.35h-4.042v31.35h4.042zM132.67 18.793c0.172-2.685 2.236-5.326 5.633-5.326 3.655 0 5.59 2.338 5.676 5.326h-11.31zM144.582 24.206c-0.774 2.338-2.451 4.2-5.805 4.2-3.483 0-6.149-2.598-6.235-6.322h15.567c0.043-0.26 0.086-0.779 0.086-1.299 0-6.495-3.569-10.912-9.934-10.912-5.203 0-9.891 4.46-9.891 10.999 0 7.058 4.859 11.129 10.407 11.129 4.816 0 8.127-2.901 9.289-6.582l-3.483-1.212zM169.955 4.534c-0.018-0.193-0.053-0.404-0.053-0.58 0-1.177 0.65-2.109 1.986-2.109 1.283 0 1.916 0.844 1.916 1.775 0 0.826-0.439 1.511-1.459 2.144l-1.88 1.177c-1.986 1.23-2.671 2.759-2.706 4.71h8.242v-1.863h-5.641c0.158-0.562 0.615-0.967 1.16-1.3l2.214-1.371c1.371-0.844 2.197-2.056 2.197-3.532 0-1.951-1.494-3.585-4.007-3.585-2.583 0-4.059 1.775-4.059 3.743 0 0.228 0.035 0.492 0.053 0.65l2.039 0.141zM159.182 5.957c0-1.441 0.246-2.548 0.808-3.251 0.387-0.51 0.931-0.844 1.757-0.844s1.353 0.334 1.757 0.844c0.545 0.703 0.791 1.81 0.791 3.251s-0.246 2.548-0.791 3.251c-0.404 0.51-0.931 0.844-1.757 0.844s-1.371-0.334-1.757-0.844c-0.545-0.703-0.808-1.81-0.808-3.251v0zM157.091 5.957c0 1.511 0.246 2.935 1.019 4.095 0.738 1.107 1.933 1.863 3.638 1.863s2.882-0.756 3.62-1.863c0.773-1.16 1.019-2.583 1.019-4.095s-0.246-2.935-1.019-4.095c-0.738-1.107-1.916-1.863-3.62-1.863s-2.9 0.756-3.638 1.863c-0.773 1.16-1.019 2.583-1.019 4.095v0z"></path>
</svg>
