<?xml version="1.0" encoding="utf-8"?>
<!-- Generated by IcoMoon.io -->
<!DOCTYPE svg PUBLIC "-//W3C//DTD SVG 1.1//EN" "http://www.w3.org/Graphics/SVG/1.1/DTD/svg11.dtd">
<svg version="1.1" xmlns="http://www.w3.org/2000/svg" xmlns:xlink="http://www.w3.org/1999/xlink" width="118" height="32" viewBox="0 0 118 32">
<path fill="#fff" opacity="0.2" d="M100.741 29.981c1.639 0.159 3.294 0.334 4.933 0.509l3.612-8.939 3.437 9.75c1.766 0.223 3.533 0.445 5.283 0.7l-6.031-17.114 6.031-14.887h-5.108l-0.048 0.080-3.262 8.048-2.864-8.112h-5.044l5.203 14.776-6.142 15.189zM96.922 29.631v-29.631h-5.044v29.202c1.687 0.143 3.373 0.27 5.044 0.429zM59.051 27.961c1.368 0 2.721 0.016 4.074 0.016v-10.879h6.063v-4.628h-6.063v-7.825h6.97v-4.644h-12.030v27.961c0.334 0.016 0.652 0 0.987 0zM43.393 28.247c1.687-0.064 3.358-0.111 5.044-0.159v-23.444h4.71v-4.644h-14.464v4.644h4.71v23.603zM4.837 31.381v-17.655l5.967 16.939c1.83-0.207 3.676-0.398 5.522-0.588v-30.076h-4.837v18.275l-6.444-18.275h-5.044v32.001h0.032c1.591-0.207 3.198-0.429 4.806-0.62zM33.814 4.644v-4.644h-12.046v29.583c3.994-0.35 8.004-0.636 12.030-0.875v-4.644c-2.323 0.127-4.646 0.286-6.97 0.461v-7.412h6.063v-4.644h-6.063v-7.825h6.986zM80.103 23.842v-23.842h-5.060v28.263c4.026 0.143 8.036 0.35 12.046 0.62v-4.628c-2.339-0.175-4.662-0.302-6.986-0.414z"></path>
</svg>
